EESchema Schematic File Version 4
EELAYER 30 0
EELAYER END
$Descr A4 11693 8268
encoding utf-8
Sheet 4 8
Title ""
Date ""
Rev ""
Comp ""
Comment1 ""
Comment2 ""
Comment3 ""
Comment4 ""
$EndDescr
Text HLabel 4750 2550 2    50   Output ~ 0
button_0
Text HLabel 4700 3500 2    50   Output ~ 0
button_1
Text HLabel 6550 2450 2    50   Output ~ 0
button_2
Text HLabel 6550 3400 2    50   Output ~ 0
button_3
$Comp
L power:GND #PWR0127
U 1 1 604B17BB
P 3750 2800
F 0 "#PWR0127" H 3750 2550 50  0001 C CNN
F 1 "GND" H 3755 2627 50  0000 C CNN
F 2 "" H 3750 2800 50  0001 C CNN
F 3 "" H 3750 2800 50  0001 C CNN
	1    3750 2800
	1    0    0    -1  
$EndComp
$Comp
L Switch:SW_Push SW6
U 1 1 604B1AAE
P 4200 2550
F 0 "SW6" H 4200 2835 50  0000 C CNN
F 1 "SW_Push" H 4200 2744 50  0000 C CNN
F 2 "glowing_kite:D6R90F1LFS" H 4200 2750 50  0001 C CNN
F 3 "~" H 4200 2750 50  0001 C CNN
	1    4200 2550
	1    0    0    -1  
$EndComp
$Comp
L Device:C C13
U 1 1 604B215E
P 4200 2800
F 0 "C13" V 4450 2800 50  0000 C CNN
F 1 "100nF" V 4350 2800 50  0000 C CNN
F 2 "Capacitor_SMD:C_0805_2012Metric" H 4238 2650 50  0001 C CNN
F 3 "~" H 4200 2800 50  0001 C CNN
	1    4200 2800
	0    1    1    0   
$EndComp
Wire Wire Line
	4050 2800 3750 2800
Wire Wire Line
	3750 2800 3750 2550
Wire Wire Line
	3750 2550 4000 2550
Connection ~ 3750 2800
Wire Wire Line
	4350 2800 4600 2800
Wire Wire Line
	4600 2800 4600 2550
Wire Wire Line
	4600 2550 4400 2550
Wire Wire Line
	4750 2550 4600 2550
Connection ~ 4600 2550
$Comp
L power:GND #PWR0128
U 1 1 604B4858
P 3700 3750
F 0 "#PWR0128" H 3700 3500 50  0001 C CNN
F 1 "GND" H 3705 3577 50  0000 C CNN
F 2 "" H 3700 3750 50  0001 C CNN
F 3 "" H 3700 3750 50  0001 C CNN
	1    3700 3750
	1    0    0    -1  
$EndComp
$Comp
L Switch:SW_Push SW2
U 1 1 604B485E
P 4150 3500
F 0 "SW2" H 4150 3785 50  0000 C CNN
F 1 "SW_Push" H 4150 3694 50  0000 C CNN
F 2 "glowing_kite:D6R90F1LFS" H 4150 3700 50  0001 C CNN
F 3 "~" H 4150 3700 50  0001 C CNN
	1    4150 3500
	1    0    0    -1  
$EndComp
$Comp
L Device:C C9
U 1 1 604B4864
P 4150 3750
F 0 "C9" V 4400 3750 50  0000 C CNN
F 1 "100nF" V 4300 3750 50  0000 C CNN
F 2 "Capacitor_SMD:C_0805_2012Metric" H 4188 3600 50  0001 C CNN
F 3 "~" H 4150 3750 50  0001 C CNN
	1    4150 3750
	0    1    1    0   
$EndComp
Wire Wire Line
	4000 3750 3700 3750
Wire Wire Line
	3700 3750 3700 3500
Wire Wire Line
	3700 3500 3950 3500
Connection ~ 3700 3750
Wire Wire Line
	4300 3750 4550 3750
Wire Wire Line
	4550 3750 4550 3500
Wire Wire Line
	4550 3500 4350 3500
Wire Wire Line
	4700 3500 4550 3500
Connection ~ 4550 3500
$Comp
L power:GND #PWR0129
U 1 1 604B4EA8
P 5550 2700
F 0 "#PWR0129" H 5550 2450 50  0001 C CNN
F 1 "GND" H 5555 2527 50  0000 C CNN
F 2 "" H 5550 2700 50  0001 C CNN
F 3 "" H 5550 2700 50  0001 C CNN
	1    5550 2700
	1    0    0    -1  
$EndComp
$Comp
L Switch:SW_Push SW3
U 1 1 604B4EAE
P 6000 2450
F 0 "SW3" H 6000 2735 50  0000 C CNN
F 1 "SW_Push" H 6000 2644 50  0000 C CNN
F 2 "glowing_kite:D6R90F1LFS" H 6000 2650 50  0001 C CNN
F 3 "~" H 6000 2650 50  0001 C CNN
	1    6000 2450
	1    0    0    -1  
$EndComp
$Comp
L Device:C C10
U 1 1 604B4EB4
P 6000 2700
F 0 "C10" V 6250 2700 50  0000 C CNN
F 1 "100nF" V 6150 2700 50  0000 C CNN
F 2 "Capacitor_SMD:C_0805_2012Metric" H 6038 2550 50  0001 C CNN
F 3 "~" H 6000 2700 50  0001 C CNN
	1    6000 2700
	0    1    1    0   
$EndComp
Wire Wire Line
	5850 2700 5550 2700
Wire Wire Line
	5550 2700 5550 2450
Wire Wire Line
	5550 2450 5800 2450
Connection ~ 5550 2700
Wire Wire Line
	6150 2700 6400 2700
Wire Wire Line
	6400 2700 6400 2450
Wire Wire Line
	6400 2450 6200 2450
Wire Wire Line
	6550 2450 6400 2450
Connection ~ 6400 2450
$Comp
L power:GND #PWR0130
U 1 1 604B584B
P 5550 3650
F 0 "#PWR0130" H 5550 3400 50  0001 C CNN
F 1 "GND" H 5555 3477 50  0000 C CNN
F 2 "" H 5550 3650 50  0001 C CNN
F 3 "" H 5550 3650 50  0001 C CNN
	1    5550 3650
	1    0    0    -1  
$EndComp
$Comp
L Switch:SW_Push SW4
U 1 1 604B5851
P 6000 3400
F 0 "SW4" H 6000 3685 50  0000 C CNN
F 1 "SW_Push" H 6000 3594 50  0000 C CNN
F 2 "glowing_kite:D6R90F1LFS" H 6000 3600 50  0001 C CNN
F 3 "~" H 6000 3600 50  0001 C CNN
	1    6000 3400
	1    0    0    -1  
$EndComp
$Comp
L Device:C C11
U 1 1 604B5857
P 6000 3650
F 0 "C11" V 6250 3650 50  0000 C CNN
F 1 "100nF" V 6150 3650 50  0000 C CNN
F 2 "Capacitor_SMD:C_0805_2012Metric" H 6038 3500 50  0001 C CNN
F 3 "~" H 6000 3650 50  0001 C CNN
	1    6000 3650
	0    1    1    0   
$EndComp
Wire Wire Line
	5850 3650 5550 3650
Wire Wire Line
	5550 3650 5550 3400
Wire Wire Line
	5550 3400 5800 3400
Connection ~ 5550 3650
Wire Wire Line
	6150 3650 6400 3650
Wire Wire Line
	6400 3650 6400 3400
Wire Wire Line
	6400 3400 6200 3400
Wire Wire Line
	6550 3400 6400 3400
Connection ~ 6400 3400
$EndSCHEMATC
