EESchema Schematic File Version 4
EELAYER 30 0
EELAYER END
$Descr A4 11693 8268
encoding utf-8
Sheet 5 8
Title ""
Date ""
Rev ""
Comp ""
Comment1 ""
Comment2 ""
Comment3 ""
Comment4 ""
$EndDescr
Text HLabel 2700 4900 0    50   Input ~ 0
led_1
Text HLabel 2750 2100 0    50   Input ~ 0
led_0
Text HLabel 6000 2850 0    50   Input ~ 0
buzzer
$Comp
L Transistor_BJT:BC237 Q1
U 1 1 604B89C1
P 4150 2100
F 0 "Q1" H 4341 2146 50  0000 L CNN
F 1 "BC237" H 4341 2055 50  0000 L CNN
F 2 "Package_TO_SOT_THT:TO-92_Inline" H 4350 2025 50  0001 L CIN
F 3 "http://www.onsemi.com/pub_link/Collateral/BC237-D.PDF" H 4150 2100 50  0001 L CNN
	1    4150 2100
	1    0    0    -1  
$EndComp
$Comp
L Device:R R11
U 1 1 604BA087
P 3500 2100
F 0 "R11" V 3293 2100 50  0000 C CNN
F 1 "10K" V 3384 2100 50  0000 C CNN
F 2 "Resistor_SMD:R_0805_2012Metric" V 3430 2100 50  0001 C CNN
F 3 "~" H 3500 2100 50  0001 C CNN
	1    3500 2100
	0    1    1    0   
$EndComp
$Comp
L Device:R R13
U 1 1 604BA669
P 4250 1550
F 0 "R13" H 4320 1596 50  0000 L CNN
F 1 "10K" H 4320 1505 50  0000 L CNN
F 2 "Resistor_SMD:R_0805_2012Metric" V 4180 1550 50  0001 C CNN
F 3 "~" H 4250 1550 50  0001 C CNN
	1    4250 1550
	1    0    0    -1  
$EndComp
$Comp
L power:GND #PWR0132
U 1 1 604BAB43
P 4250 2600
F 0 "#PWR0132" H 4250 2350 50  0001 C CNN
F 1 "GND" H 4255 2427 50  0000 C CNN
F 2 "" H 4250 2600 50  0001 C CNN
F 3 "" H 4250 2600 50  0001 C CNN
	1    4250 2600
	1    0    0    -1  
$EndComp
Wire Wire Line
	4250 1900 4250 1850
Wire Wire Line
	3650 2100 3950 2100
Wire Wire Line
	4250 1850 4750 1850
Connection ~ 4250 1850
Wire Wire Line
	4250 1850 4250 1700
$Comp
L Transistor_FET:IRF3205 Q3
U 1 1 604BBF0F
P 4950 1850
F 0 "Q3" H 5155 1896 50  0000 L CNN
F 1 "IRF3205" H 5155 1805 50  0000 L CNN
F 2 "Package_TO_SOT_THT:TO-220-3_Horizontal_TabDown" H 5200 1775 50  0001 L CIN
F 3 "http://www.irf.com/product-info/datasheets/data/irf3205.pdf" H 4950 1850 50  0001 L CNN
	1    4950 1850
	1    0    0    -1  
$EndComp
Wire Wire Line
	5050 2050 5050 2600
$Comp
L power:GND #PWR0134
U 1 1 604BDE37
P 5050 2600
F 0 "#PWR0134" H 5050 2350 50  0001 C CNN
F 1 "GND" H 5055 2427 50  0000 C CNN
F 2 "" H 5050 2600 50  0001 C CNN
F 3 "" H 5050 2600 50  0001 C CNN
	1    5050 2600
	1    0    0    -1  
$EndComp
$Comp
L Device:R R9
U 1 1 604BE94F
P 3200 1800
F 0 "R9" H 3270 1846 50  0000 L CNN
F 1 "10K" H 3270 1755 50  0000 L CNN
F 2 "Resistor_SMD:R_0805_2012Metric" V 3130 1800 50  0001 C CNN
F 3 "~" H 3200 1800 50  0001 C CNN
	1    3200 1800
	1    0    0    -1  
$EndComp
Wire Wire Line
	3200 2100 3200 1950
Wire Wire Line
	3200 2100 3350 2100
Wire Wire Line
	3200 1650 3200 1550
Wire Wire Line
	2750 2100 3200 2100
Connection ~ 3200 2100
$Comp
L power:+3.3V #PWR0136
U 1 1 604BF1A3
P 3200 1550
F 0 "#PWR0136" H 3200 1400 50  0001 C CNN
F 1 "+3.3V" H 3215 1723 50  0000 C CNN
F 2 "" H 3200 1550 50  0001 C CNN
F 3 "" H 3200 1550 50  0001 C CNN
	1    3200 1550
	1    0    0    -1  
$EndComp
Wire Wire Line
	4250 1050 4250 1400
Wire Wire Line
	4250 2300 4250 2600
$Comp
L Transistor_BJT:BC237 Q2
U 1 1 604C464D
P 4100 4900
F 0 "Q2" H 4291 4946 50  0000 L CNN
F 1 "BC237" H 4291 4855 50  0000 L CNN
F 2 "Package_TO_SOT_THT:TO-92_Inline" H 4300 4825 50  0001 L CIN
F 3 "http://www.onsemi.com/pub_link/Collateral/BC237-D.PDF" H 4100 4900 50  0001 L CNN
	1    4100 4900
	1    0    0    -1  
$EndComp
$Comp
L Device:R R12
U 1 1 604C4653
P 3450 4900
F 0 "R12" V 3243 4900 50  0000 C CNN
F 1 "10K" V 3334 4900 50  0000 C CNN
F 2 "Resistor_SMD:R_0805_2012Metric" V 3380 4900 50  0001 C CNN
F 3 "~" H 3450 4900 50  0001 C CNN
	1    3450 4900
	0    1    1    0   
$EndComp
$Comp
L Device:R R14
U 1 1 604C4659
P 4200 4350
F 0 "R14" H 4270 4396 50  0000 L CNN
F 1 "10K" H 4270 4305 50  0000 L CNN
F 2 "Resistor_SMD:R_0805_2012Metric" V 4130 4350 50  0001 C CNN
F 3 "~" H 4200 4350 50  0001 C CNN
	1    4200 4350
	1    0    0    -1  
$EndComp
$Comp
L power:GND #PWR0137
U 1 1 604C465F
P 4200 5400
F 0 "#PWR0137" H 4200 5150 50  0001 C CNN
F 1 "GND" H 4205 5227 50  0000 C CNN
F 2 "" H 4200 5400 50  0001 C CNN
F 3 "" H 4200 5400 50  0001 C CNN
	1    4200 5400
	1    0    0    -1  
$EndComp
Wire Wire Line
	4200 4700 4200 4650
Wire Wire Line
	3600 4900 3900 4900
Wire Wire Line
	4200 4650 4700 4650
Connection ~ 4200 4650
Wire Wire Line
	4200 4650 4200 4500
$Comp
L Transistor_FET:IRF3205 Q4
U 1 1 604C4670
P 4900 4650
F 0 "Q4" H 5105 4696 50  0000 L CNN
F 1 "IRF3205" H 5105 4605 50  0000 L CNN
F 2 "Package_TO_SOT_THT:TO-220-3_Horizontal_TabDown" H 5150 4575 50  0001 L CIN
F 3 "http://www.irf.com/product-info/datasheets/data/irf3205.pdf" H 4900 4650 50  0001 L CNN
	1    4900 4650
	1    0    0    -1  
$EndComp
Wire Wire Line
	5000 4850 5000 5400
$Comp
L power:GND #PWR0139
U 1 1 604C467D
P 5000 5400
F 0 "#PWR0139" H 5000 5150 50  0001 C CNN
F 1 "GND" H 5005 5227 50  0000 C CNN
F 2 "" H 5000 5400 50  0001 C CNN
F 3 "" H 5000 5400 50  0001 C CNN
	1    5000 5400
	1    0    0    -1  
$EndComp
$Comp
L Device:R R10
U 1 1 604C468B
P 3150 4600
F 0 "R10" H 3220 4646 50  0000 L CNN
F 1 "10K" H 3220 4555 50  0000 L CNN
F 2 "Resistor_SMD:R_0805_2012Metric" V 3080 4600 50  0001 C CNN
F 3 "~" H 3150 4600 50  0001 C CNN
	1    3150 4600
	1    0    0    -1  
$EndComp
Wire Wire Line
	3150 4900 3150 4750
Wire Wire Line
	3150 4900 3300 4900
Wire Wire Line
	3150 4450 3150 4350
Wire Wire Line
	2700 4900 3150 4900
Connection ~ 3150 4900
$Comp
L power:+3.3V #PWR0141
U 1 1 604C4696
P 3150 4350
F 0 "#PWR0141" H 3150 4200 50  0001 C CNN
F 1 "+3.3V" H 3165 4523 50  0000 C CNN
F 2 "" H 3150 4350 50  0001 C CNN
F 3 "" H 3150 4350 50  0001 C CNN
	1    3150 4350
	1    0    0    -1  
$EndComp
Wire Wire Line
	4200 3850 4200 4200
Wire Wire Line
	4200 5100 4200 5400
$Comp
L Transistor_BJT:BC237 Q5
U 1 1 604C76DA
P 7400 2850
F 0 "Q5" H 7591 2896 50  0000 L CNN
F 1 "BC237" H 7591 2805 50  0000 L CNN
F 2 "Package_TO_SOT_THT:TO-92_Inline" H 7600 2775 50  0001 L CIN
F 3 "http://www.onsemi.com/pub_link/Collateral/BC237-D.PDF" H 7400 2850 50  0001 L CNN
	1    7400 2850
	1    0    0    -1  
$EndComp
$Comp
L Device:R R16
U 1 1 604C76E0
P 6750 2850
F 0 "R16" V 6543 2850 50  0000 C CNN
F 1 "10K" V 6634 2850 50  0000 C CNN
F 2 "Resistor_SMD:R_0805_2012Metric" V 6680 2850 50  0001 C CNN
F 3 "~" H 6750 2850 50  0001 C CNN
	1    6750 2850
	0    1    1    0   
$EndComp
$Comp
L power:GND #PWR0142
U 1 1 604C76EC
P 7500 3350
F 0 "#PWR0142" H 7500 3100 50  0001 C CNN
F 1 "GND" H 7505 3177 50  0000 C CNN
F 2 "" H 7500 3350 50  0001 C CNN
F 3 "" H 7500 3350 50  0001 C CNN
	1    7500 3350
	1    0    0    -1  
$EndComp
Wire Wire Line
	6900 2850 7200 2850
Wire Wire Line
	7500 3050 7500 3350
$Comp
L Device:Buzzer BZ1
U 1 1 604C9682
P 7600 2400
F 0 "BZ1" H 7752 2429 50  0000 L CNN
F 1 "Buzzer" H 7752 2338 50  0000 L CNN
F 2 "Buzzer_Beeper:Buzzer_12x9.5RM7.6" V 7575 2500 50  0001 C CNN
F 3 "~" V 7575 2500 50  0001 C CNN
	1    7600 2400
	1    0    0    -1  
$EndComp
Wire Wire Line
	7500 1800 7500 2300
Wire Wire Line
	7500 2500 7500 2650
Wire Wire Line
	6000 2850 6600 2850
Text HLabel 4250 1050 1    50   Input ~ 0
12V_LED
Text HLabel 5050 1050 1    50   Input ~ 0
12V_LED
Text HLabel 4200 3850 1    50   Input ~ 0
12V_LED
Text HLabel 5000 3850 1    50   Input ~ 0
12V_LED
Text HLabel 7500 1800 1    50   Input ~ 0
12V_LED
$Comp
L Connector:Conn_01x02_Female J6
U 1 1 6089A3FD
P 5250 1350
F 0 "J6" H 5278 1326 50  0000 L CNN
F 1 "Conn_01x02_Female" H 5278 1235 50  0000 L CNN
F 2 "TerminalBlock_RND:TerminalBlock_RND_205-00001_1x02_P5.00mm_Horizontal" H 5250 1350 50  0001 C CNN
F 3 "~" H 5250 1350 50  0001 C CNN
	1    5250 1350
	1    0    0    -1  
$EndComp
Wire Wire Line
	5050 1050 5050 1350
Wire Wire Line
	5050 1450 5050 1650
$Comp
L Connector:Conn_01x02_Female J5
U 1 1 6089C54F
P 4800 4250
F 0 "J5" H 4450 4250 50  0000 L CNN
F 1 "Conn_01x02_Female" H 3800 4150 50  0000 L CNN
F 2 "TerminalBlock_RND:TerminalBlock_RND_205-00001_1x02_P5.00mm_Horizontal" H 4800 4250 50  0001 C CNN
F 3 "~" H 4800 4250 50  0001 C CNN
	1    4800 4250
	-1   0    0    1   
$EndComp
Wire Wire Line
	5000 3850 5000 4150
Wire Wire Line
	5000 4250 5000 4450
$EndSCHEMATC
