EESchema Schematic File Version 4
EELAYER 30 0
EELAYER END
$Descr A4 11693 8268
encoding utf-8
Sheet 6 8
Title ""
Date ""
Rev ""
Comp ""
Comment1 ""
Comment2 ""
Comment3 ""
Comment4 ""
$EndDescr
Text HLabel 8200 2250 2    50   Output ~ 0
3.3V
Text HLabel 8600 3800 2    50   Output ~ 0
VBAT
$Comp
L Regulator_Switching:LM2596T-5 U3
U 1 1 604CEB3A
P 4650 3700
F 0 "U3" H 4650 4067 50  0000 C CNN
F 1 "LM2596TVADJG" H 4650 3976 50  0000 C CNN
F 2 "Package_TO_SOT_THT:TO-220F-5_Horizontal_TabDown" H 4700 3450 50  0001 L CIN
F 3 "http://www.ti.com/lit/ds/symlink/lm2596.pdf" H 4650 3700 50  0001 C CNN
	1    4650 3700
	1    0    0    -1  
$EndComp
$Comp
L power:+3.3V #PWR0145
U 1 1 604CFDF7
P 7950 2200
F 0 "#PWR0145" H 7950 2050 50  0001 C CNN
F 1 "+3.3V" H 7965 2373 50  0000 C CNN
F 2 "" H 7950 2200 50  0001 C CNN
F 3 "" H 7950 2200 50  0001 C CNN
	1    7950 2200
	1    0    0    -1  
$EndComp
$Comp
L power:GND #PWR0146
U 1 1 604D02ED
P 6650 2700
F 0 "#PWR0146" H 6650 2450 50  0001 C CNN
F 1 "GND" H 6655 2527 50  0000 C CNN
F 2 "" H 6650 2700 50  0001 C CNN
F 3 "" H 6650 2700 50  0001 C CNN
	1    6650 2700
	1    0    0    -1  
$EndComp
$Comp
L power:+12V #PWR0147
U 1 1 604D0772
P 2600 3050
F 0 "#PWR0147" H 2600 2900 50  0001 C CNN
F 1 "+12V" H 2615 3223 50  0000 C CNN
F 2 "" H 2600 3050 50  0001 C CNN
F 3 "" H 2600 3050 50  0001 C CNN
	1    2600 3050
	1    0    0    -1  
$EndComp
$Comp
L power:+5V #PWR0148
U 1 1 604D0C2C
P 5450 2050
F 0 "#PWR0148" H 5450 1900 50  0001 C CNN
F 1 "+5V" H 5465 2223 50  0000 C CNN
F 2 "" H 5450 2050 50  0001 C CNN
F 3 "" H 5450 2050 50  0001 C CNN
	1    5450 2050
	1    0    0    -1  
$EndComp
$Comp
L Device:C C17
U 1 1 604D1206
P 7350 2400
F 0 "C17" H 7235 2354 50  0000 R CNN
F 1 "1uF" H 7235 2445 50  0000 R CNN
F 2 "Capacitor_SMD:C_0805_2012Metric" H 7388 2250 50  0001 C CNN
F 3 "~" H 7350 2400 50  0001 C CNN
	1    7350 2400
	-1   0    0    1   
$EndComp
$Comp
L Device:C C14
U 1 1 604D2EE7
P 5850 2400
F 0 "C14" H 5735 2354 50  0000 R CNN
F 1 "1uF" H 5735 2445 50  0000 R CNN
F 2 "Capacitor_SMD:C_0805_2012Metric" H 5888 2250 50  0001 C CNN
F 3 "~" H 5850 2400 50  0001 C CNN
	1    5850 2400
	-1   0    0    1   
$EndComp
Wire Wire Line
	7350 2700 7350 2550
Wire Wire Line
	7950 2250 7950 2200
Wire Wire Line
	7950 2250 8200 2250
Connection ~ 7950 2250
$Comp
L power:GND #PWR0149
U 1 1 604DD013
P 8450 4500
F 0 "#PWR0149" H 8450 4250 50  0001 C CNN
F 1 "GND" H 8455 4327 50  0000 C CNN
F 2 "" H 8450 4500 50  0001 C CNN
F 3 "" H 8450 4500 50  0001 C CNN
	1    8450 4500
	1    0    0    -1  
$EndComp
Wire Wire Line
	8450 4500 8450 4450
Wire Wire Line
	8450 3900 8450 3800
Wire Wire Line
	8450 3800 8500 3800
$Comp
L power:+BATT #PWR0150
U 1 1 604DDD73
P 8500 3700
F 0 "#PWR0150" H 8500 3550 50  0001 C CNN
F 1 "+BATT" H 8515 3873 50  0000 C CNN
F 2 "" H 8500 3700 50  0001 C CNN
F 3 "" H 8500 3700 50  0001 C CNN
	1    8500 3700
	1    0    0    -1  
$EndComp
Wire Wire Line
	8500 3700 8500 3800
Connection ~ 8500 3800
Wire Wire Line
	8500 3800 8600 3800
$Comp
L Device:C C12
U 1 1 604DE7DF
P 3700 3750
F 0 "C12" H 3900 3750 50  0000 L CNN
F 1 "100uF" H 3800 3600 50  0000 L CNN
F 2 "Capacitor_THT:CP_Radial_D5.0mm_P2.00mm" H 3738 3600 50  0001 C CNN
F 3 "~" H 3700 3750 50  0001 C CNN
	1    3700 3750
	1    0    0    -1  
$EndComp
$Comp
L Device:C C29
U 1 1 604DEE62
P 6000 4150
F 0 "C29" H 6115 4196 50  0000 L CNN
F 1 "220uF" H 6115 4105 50  0000 L CNN
F 2 "Capacitor_THT:CP_Radial_D6.3mm_P2.50mm" H 6038 4000 50  0001 C CNN
F 3 "~" H 6000 4150 50  0001 C CNN
	1    6000 4150
	1    0    0    -1  
$EndComp
$Comp
L power:GND #PWR0151
U 1 1 604DF37B
P 4900 4550
F 0 "#PWR0151" H 4900 4300 50  0001 C CNN
F 1 "GND" H 4905 4377 50  0000 C CNN
F 2 "" H 4900 4550 50  0001 C CNN
F 3 "" H 4900 4550 50  0001 C CNN
	1    4900 4550
	1    0    0    -1  
$EndComp
Wire Wire Line
	3700 3600 4150 3600
Wire Wire Line
	4150 4550 3700 4550
Wire Wire Line
	4150 4550 4650 4550
Connection ~ 4150 4550
Connection ~ 3700 3600
Connection ~ 4650 4550
$Comp
L Device:D D3
U 1 1 604E6802
P 5300 4150
F 0 "D3" V 5254 4230 50  0000 L CNN
F 1 "SS34" V 5345 4230 50  0000 L CNN
F 2 "Diode_SMD:D_SOD-123" H 5300 4150 50  0001 C CNN
F 3 "~" H 5300 4150 50  0001 C CNN
	1    5300 4150
	0    1    1    0   
$EndComp
Connection ~ 4900 4550
Wire Wire Line
	4900 4550 4650 4550
$Comp
L power:+5V #PWR0152
U 1 1 604E8FE9
P 7250 3350
F 0 "#PWR0152" H 7250 3200 50  0001 C CNN
F 1 "+5V" H 7265 3523 50  0000 C CNN
F 2 "" H 7250 3350 50  0001 C CNN
F 3 "" H 7250 3350 50  0001 C CNN
	1    7250 3350
	1    0    0    -1  
$EndComp
$Comp
L Device:R R17
U 1 1 604124A0
P 6600 3950
F 0 "R17" H 6670 3996 50  0000 L CNN
F 1 "3.09K" H 6670 3905 50  0000 L CNN
F 2 "Resistor_SMD:R_0805_2012Metric" V 6530 3950 50  0001 C CNN
F 3 "~" H 6600 3950 50  0001 C CNN
	1    6600 3950
	1    0    0    -1  
$EndComp
$Comp
L Device:R R18
U 1 1 60412B71
P 6600 4400
F 0 "R18" V 6393 4400 50  0000 C CNN
F 1 "1K" V 6484 4400 50  0000 C CNN
F 2 "Resistor_SMD:R_0805_2012Metric" V 6530 4400 50  0001 C CNN
F 3 "~" H 6600 4400 50  0001 C CNN
	1    6600 4400
	-1   0    0    1   
$EndComp
Wire Wire Line
	5150 3600 5200 3600
Wire Wire Line
	7250 3800 7250 3350
$Comp
L Device:C C23
U 1 1 604210F8
P 7050 3950
F 0 "C23" H 7165 3996 50  0000 L CNN
F 1 "10nF" H 7165 3905 50  0000 L CNN
F 2 "Capacitor_SMD:C_0805_2012Metric" H 7088 3800 50  0001 C CNN
F 3 "~" H 7050 3950 50  0001 C CNN
	1    7050 3950
	1    0    0    -1  
$EndComp
$Comp
L power:+12V #PWR0157
U 1 1 603B416B
P 2800 2150
F 0 "#PWR0157" H 2800 2000 50  0001 C CNN
F 1 "+12V" H 2815 2323 50  0000 C CNN
F 2 "" H 2800 2150 50  0001 C CNN
F 3 "" H 2800 2150 50  0001 C CNN
	1    2800 2150
	1    0    0    -1  
$EndComp
$Comp
L power:GND #PWR0158
U 1 1 603B49D5
P 3850 2300
F 0 "#PWR0158" H 3850 2050 50  0001 C CNN
F 1 "GND" H 3855 2127 50  0000 C CNN
F 2 "" H 3850 2300 50  0001 C CNN
F 3 "" H 3850 2300 50  0001 C CNN
	1    3850 2300
	1    0    0    -1  
$EndComp
Wire Wire Line
	3850 2300 3850 2250
Wire Wire Line
	2800 2250 2800 2150
Wire Wire Line
	6600 4250 6600 4150
Wire Wire Line
	6600 4150 7050 4150
Wire Wire Line
	7050 4150 7050 4100
Connection ~ 6600 4150
Wire Wire Line
	6600 4150 6600 4100
Wire Wire Line
	7050 3800 6600 3800
Connection ~ 6600 3800
Wire Wire Line
	5200 3350 5200 3600
Wire Wire Line
	7050 3800 7250 3800
Connection ~ 7050 3800
Wire Wire Line
	4650 4000 4650 4550
Wire Wire Line
	4150 3800 4150 4550
Wire Wire Line
	3700 3900 3700 4550
Wire Wire Line
	5150 3800 5300 3800
Wire Wire Line
	6000 4000 6000 3800
Wire Wire Line
	4900 4550 5300 4550
Connection ~ 6000 3800
Wire Wire Line
	6000 3800 6600 3800
Wire Wire Line
	6000 4300 6000 4550
Connection ~ 6000 4550
Wire Wire Line
	6000 4550 6600 4550
Wire Wire Line
	5300 4000 5300 3800
Connection ~ 5300 3800
Wire Wire Line
	5300 3800 5450 3800
Wire Wire Line
	5300 4300 5300 4550
Connection ~ 5300 4550
Wire Wire Line
	5300 4550 6000 4550
Wire Wire Line
	5200 3350 6450 3350
Wire Wire Line
	6450 3350 6450 4150
Wire Wire Line
	6450 4150 6600 4150
$Comp
L new_regulator:TLV75733PDBV U4
U 1 1 603F4E0E
P 6650 2350
F 0 "U4" H 6650 2692 50  0000 C CNN
F 1 "TLV75733PDBV" H 6650 2601 50  0000 C CNN
F 2 "Package_TO_SOT_SMD:SOT-23-5" H 6650 2675 50  0001 C CIN
F 3 "https://www.ti.com/lit/ds/symlink/tlv757p.pdf" H 6650 2400 50  0001 C CNN
	1    6650 2350
	1    0    0    -1  
$EndComp
Wire Wire Line
	6950 2250 7350 2250
Connection ~ 7350 2250
Wire Wire Line
	6650 2650 6650 2700
Wire Wire Line
	6650 2700 7350 2700
Wire Wire Line
	7350 2250 7950 2250
Wire Wire Line
	5450 2250 5850 2250
Wire Wire Line
	5850 2250 6200 2250
Connection ~ 5850 2250
Wire Wire Line
	5850 2550 5850 2700
Wire Wire Line
	5850 2700 6650 2700
Connection ~ 6650 2700
Wire Wire Line
	6350 2350 6200 2350
Wire Wire Line
	6200 2350 6200 2250
Connection ~ 6200 2250
Wire Wire Line
	6200 2250 6350 2250
$Comp
L power:+3.3V #PWR0159
U 1 1 6045E4D1
P 2700 5000
F 0 "#PWR0159" H 2700 4850 50  0001 C CNN
F 1 "+3.3V" H 2715 5173 50  0000 C CNN
F 2 "" H 2700 5000 50  0001 C CNN
F 3 "" H 2700 5000 50  0001 C CNN
	1    2700 5000
	1    0    0    -1  
$EndComp
$Comp
L power:GND #PWR0160
U 1 1 6045F142
P 2700 5750
F 0 "#PWR0160" H 2700 5500 50  0001 C CNN
F 1 "GND" H 2705 5577 50  0000 C CNN
F 2 "" H 2700 5750 50  0001 C CNN
F 3 "" H 2700 5750 50  0001 C CNN
	1    2700 5750
	1    0    0    -1  
$EndComp
$Comp
L Device:C C15
U 1 1 6045F828
P 2700 5350
F 0 "C15" H 2815 5396 50  0000 L CNN
F 1 "100nF" H 2815 5305 50  0000 L CNN
F 2 "Capacitor_SMD:C_0805_2012Metric" H 2738 5200 50  0001 C CNN
F 3 "~" H 2700 5350 50  0001 C CNN
	1    2700 5350
	1    0    0    -1  
$EndComp
$Comp
L Device:C C16
U 1 1 6046022A
P 3050 5350
F 0 "C16" H 3165 5396 50  0000 L CNN
F 1 "100nF" H 3165 5305 50  0000 L CNN
F 2 "Capacitor_SMD:C_0805_2012Metric" H 3088 5200 50  0001 C CNN
F 3 "~" H 3050 5350 50  0001 C CNN
	1    3050 5350
	1    0    0    -1  
$EndComp
$Comp
L Device:C C18
U 1 1 6046101A
P 3400 5350
F 0 "C18" H 3515 5396 50  0000 L CNN
F 1 "100nF" H 3515 5305 50  0000 L CNN
F 2 "Capacitor_SMD:C_0805_2012Metric" H 3438 5200 50  0001 C CNN
F 3 "~" H 3400 5350 50  0001 C CNN
	1    3400 5350
	1    0    0    -1  
$EndComp
$Comp
L Device:C C24
U 1 1 60461F09
P 3800 5350
F 0 "C24" H 3915 5396 50  0000 L CNN
F 1 "100nF" H 3915 5305 50  0000 L CNN
F 2 "Capacitor_SMD:C_0805_2012Metric" H 3838 5200 50  0001 C CNN
F 3 "~" H 3800 5350 50  0001 C CNN
	1    3800 5350
	1    0    0    -1  
$EndComp
$Comp
L Device:C C25
U 1 1 60462CE2
P 4150 5350
F 0 "C25" H 4265 5396 50  0000 L CNN
F 1 "100nF" H 4265 5305 50  0000 L CNN
F 2 "Capacitor_SMD:C_0805_2012Metric" H 4188 5200 50  0001 C CNN
F 3 "~" H 4150 5350 50  0001 C CNN
	1    4150 5350
	1    0    0    -1  
$EndComp
$Comp
L Device:C C26
U 1 1 60463BD4
P 4500 5350
F 0 "C26" H 4615 5396 50  0000 L CNN
F 1 "100nF" H 4615 5305 50  0000 L CNN
F 2 "Capacitor_SMD:C_0805_2012Metric" H 4538 5200 50  0001 C CNN
F 3 "~" H 4500 5350 50  0001 C CNN
	1    4500 5350
	1    0    0    -1  
$EndComp
Wire Wire Line
	2700 5000 2700 5200
Wire Wire Line
	2700 5200 3050 5200
Connection ~ 2700 5200
Connection ~ 3050 5200
Wire Wire Line
	3050 5200 3400 5200
Connection ~ 3400 5200
Wire Wire Line
	3400 5200 3800 5200
Connection ~ 3800 5200
Wire Wire Line
	3800 5200 4150 5200
Connection ~ 4150 5200
Wire Wire Line
	4150 5200 4500 5200
Wire Wire Line
	2700 5500 3050 5500
Connection ~ 3050 5500
Wire Wire Line
	3050 5500 3400 5500
Connection ~ 3400 5500
Wire Wire Line
	3400 5500 3800 5500
Connection ~ 3800 5500
Wire Wire Line
	3800 5500 4150 5500
Connection ~ 4150 5500
Wire Wire Line
	4150 5500 4500 5500
Wire Wire Line
	2700 5500 2700 5750
Connection ~ 2700 5500
$Comp
L Device:C C27
U 1 1 60471389
P 8050 4050
F 0 "C27" H 8165 4096 50  0000 L CNN
F 1 "100nF" H 8165 4005 50  0000 L CNN
F 2 "Capacitor_SMD:C_0805_2012Metric" H 8088 3900 50  0001 C CNN
F 3 "~" H 8050 4050 50  0001 C CNN
	1    8050 4050
	1    0    0    -1  
$EndComp
Wire Wire Line
	8450 3800 8050 3800
Wire Wire Line
	8050 3800 8050 3900
Connection ~ 8450 3800
Wire Wire Line
	8050 4450 8450 4450
Connection ~ 8450 4450
Wire Wire Line
	8450 4450 8450 4350
$Comp
L Device:C C28
U 1 1 6047AC61
P 4850 5350
F 0 "C28" H 4965 5396 50  0000 L CNN
F 1 "100nF" H 4965 5305 50  0000 L CNN
F 2 "Capacitor_SMD:C_0805_2012Metric" H 4888 5200 50  0001 C CNN
F 3 "~" H 4850 5350 50  0001 C CNN
	1    4850 5350
	1    0    0    -1  
$EndComp
Wire Wire Line
	4500 5200 4850 5200
Wire Wire Line
	4500 5500 4850 5500
Wire Wire Line
	3850 2250 3700 2250
Connection ~ 3850 2250
Wire Wire Line
	3700 2100 3850 2100
Wire Wire Line
	3850 2100 3850 2250
$Comp
L glowing_kite:renata_hu2032-LF U6
U 1 1 6040ED11
P 8350 4100
F 0 "U6" V 8329 4288 50  0000 L CNN
F 1 "renata_hu2032-LF" V 8420 4288 50  0000 L CNN
F 2 "glowing_kite:renata_hu2032-LF" H 8350 4100 50  0001 C CNN
F 3 "" H 8350 4100 50  0001 C CNN
	1    8350 4100
	0    1    1    0   
$EndComp
Wire Wire Line
	8050 4200 8050 4450
$Comp
L Device:L L2
U 1 1 603E5F5F
P 5600 3800
F 0 "L2" V 5419 3800 50  0000 C CNN
F 1 "33uH" V 5510 3800 50  0000 C CNN
F 2 "glowing_kite:L_Bourns_SRR1260" H 5600 3800 50  0001 C CNN
F 3 "~" H 5600 3800 50  0001 C CNN
	1    5600 3800
	0    1    1    0   
$EndComp
Wire Wire Line
	5750 3800 6000 3800
Connection ~ 4500 5200
Connection ~ 4500 5500
$Comp
L glowing_kite:hole_2mm U7
U 1 1 6043629D
P 9600 1600
F 0 "U7" H 9699 1646 50  0000 L CNN
F 1 "hole_2mm" H 9699 1555 50  0000 L CNN
F 2 "glowing_kite:hole_2mm" H 9600 1600 50  0001 C CNN
F 3 "" H 9600 1600 50  0001 C CNN
	1    9600 1600
	1    0    0    -1  
$EndComp
$Comp
L glowing_kite:hole_2mm U12
U 1 1 60442FD8
P 10300 1600
F 0 "U12" H 10399 1646 50  0000 L CNN
F 1 "hole_2mm" H 10399 1555 50  0000 L CNN
F 2 "glowing_kite:hole_2mm" H 10300 1600 50  0001 C CNN
F 3 "" H 10300 1600 50  0001 C CNN
	1    10300 1600
	1    0    0    -1  
$EndComp
$Comp
L glowing_kite:hole_2mm U11
U 1 1 60444BB6
P 10250 1000
F 0 "U11" H 10349 1046 50  0000 L CNN
F 1 "hole_2mm" H 10349 955 50  0000 L CNN
F 2 "glowing_kite:hole_2mm" H 10250 1000 50  0001 C CNN
F 3 "" H 10250 1000 50  0001 C CNN
	1    10250 1000
	1    0    0    -1  
$EndComp
$Comp
L glowing_kite:hole_2mm U8
U 1 1 6044675F
P 9600 1000
F 0 "U8" H 9699 1046 50  0000 L CNN
F 1 "hole_2mm" H 9699 955 50  0000 L CNN
F 2 "glowing_kite:hole_2mm" H 9600 1000 50  0001 C CNN
F 3 "" H 9600 1000 50  0001 C CNN
	1    9600 1000
	1    0    0    -1  
$EndComp
$Comp
L glowing_kite:hole_2mm U10
U 1 1 60449E3E
P 8950 1600
F 0 "U10" H 9049 1646 50  0000 L CNN
F 1 "hole_2mm" H 9049 1555 50  0000 L CNN
F 2 "glowing_kite:hole_2mm" H 8950 1600 50  0001 C CNN
F 3 "" H 8950 1600 50  0001 C CNN
	1    8950 1600
	1    0    0    -1  
$EndComp
$Comp
L glowing_kite:hole_2mm U13
U 1 1 6044B9B6
P 10000 2300
F 0 "U13" H 10099 2346 50  0000 L CNN
F 1 "hole_2mm" H 10099 2255 50  0000 L CNN
F 2 "glowing_kite:hole_2mm" H 10000 2300 50  0001 C CNN
F 3 "" H 10000 2300 50  0001 C CNN
	1    10000 2300
	1    0    0    -1  
$EndComp
$Comp
L power:GND #PWR0162
U 1 1 606D1C38
P 8950 1750
F 0 "#PWR0162" H 8950 1500 50  0001 C CNN
F 1 "GND" H 8955 1577 50  0000 C CNN
F 2 "" H 8950 1750 50  0001 C CNN
F 3 "" H 8950 1750 50  0001 C CNN
	1    8950 1750
	1    0    0    -1  
$EndComp
$Comp
L power:GND #PWR0163
U 1 1 606D39B9
P 9600 1750
F 0 "#PWR0163" H 9600 1500 50  0001 C CNN
F 1 "GND" H 9605 1577 50  0000 C CNN
F 2 "" H 9600 1750 50  0001 C CNN
F 3 "" H 9600 1750 50  0001 C CNN
	1    9600 1750
	1    0    0    -1  
$EndComp
$Comp
L power:GND #PWR0164
U 1 1 606D573F
P 10000 2450
F 0 "#PWR0164" H 10000 2200 50  0001 C CNN
F 1 "GND" H 10005 2277 50  0000 C CNN
F 2 "" H 10000 2450 50  0001 C CNN
F 3 "" H 10000 2450 50  0001 C CNN
	1    10000 2450
	1    0    0    -1  
$EndComp
$Comp
L power:GND #PWR0165
U 1 1 606D7427
P 10300 1750
F 0 "#PWR0165" H 10300 1500 50  0001 C CNN
F 1 "GND" H 10305 1577 50  0000 C CNN
F 2 "" H 10300 1750 50  0001 C CNN
F 3 "" H 10300 1750 50  0001 C CNN
	1    10300 1750
	1    0    0    -1  
$EndComp
$Comp
L power:GND #PWR0167
U 1 1 606E8B6A
P 10250 1150
F 0 "#PWR0167" H 10250 900 50  0001 C CNN
F 1 "GND" H 10255 977 50  0000 C CNN
F 2 "" H 10250 1150 50  0001 C CNN
F 3 "" H 10250 1150 50  0001 C CNN
	1    10250 1150
	1    0    0    -1  
$EndComp
$Comp
L power:GND #PWR0168
U 1 1 606EA922
P 9600 1150
F 0 "#PWR0168" H 9600 900 50  0001 C CNN
F 1 "GND" H 9605 977 50  0000 C CNN
F 2 "" H 9600 1150 50  0001 C CNN
F 3 "" H 9600 1150 50  0001 C CNN
	1    9600 1150
	1    0    0    -1  
$EndComp
Wire Wire Line
	2800 2250 2950 2250
$Comp
L glowing_kite:barrel_jack_kobiconn_161-0725-E U5
U 1 1 603DAC23
P 3400 2400
F 0 "U5" H 3350 2800 50  0000 C CNN
F 1 "barrel_jack_kobiconn_161-0725-E" H 3350 2950 50  0000 C CNN
F 2 "glowing_kite:dc_jack_kobiconn_161-0725-e" H 3400 2400 50  0001 C CNN
F 3 "" H 3400 2400 50  0001 C CNN
	1    3400 2400
	1    0    0    -1  
$EndComp
$Comp
L power:GND #PWR0169
U 1 1 60723FFF
P 2900 2500
F 0 "#PWR0169" H 2900 2250 50  0001 C CNN
F 1 "GND" H 2905 2327 50  0000 C CNN
F 2 "" H 2900 2500 50  0001 C CNN
F 3 "" H 2900 2500 50  0001 C CNN
	1    2900 2500
	1    0    0    -1  
$EndComp
Wire Wire Line
	2950 2100 2900 2100
Wire Wire Line
	2900 2100 2900 2500
$Comp
L Device:Fuse F2
U 1 1 60729642
P 3050 3600
F 0 "F2" V 2853 3600 50  0000 C CNN
F 1 "500 mA" V 2944 3600 50  0000 C CNN
F 2 "Fuse:Fuse_1206_3216Metric" V 2980 3600 50  0001 C CNN
F 3 "~" H 3050 3600 50  0001 C CNN
	1    3050 3600
	0    1    1    0   
$EndComp
$Comp
L Device:Fuse F1
U 1 1 6072B388
P 1650 4100
F 0 "F1" V 1453 4100 50  0000 C CNN
F 1 "1 A" V 1544 4100 50  0000 C CNN
F 2 "Fuse:Fuse_1206_3216Metric" V 1580 4100 50  0001 C CNN
F 3 "~" H 1650 4100 50  0001 C CNN
	1    1650 4100
	0    1    1    0   
$EndComp
Wire Wire Line
	2600 3050 2600 3600
Wire Wire Line
	5450 2050 5450 2250
Wire Wire Line
	3200 3600 3700 3600
Wire Wire Line
	2600 3600 2900 3600
Wire Wire Line
	1500 4100 1400 4100
Wire Wire Line
	1400 4100 1400 4050
Wire Wire Line
	1800 4100 1900 4100
$Comp
L power:+12V #PWR0170
U 1 1 606DEEC2
P 1400 4050
F 0 "#PWR0170" H 1400 3900 50  0001 C CNN
F 1 "+12V" H 1415 4223 50  0000 C CNN
F 2 "" H 1400 4050 50  0001 C CNN
F 3 "" H 1400 4050 50  0001 C CNN
	1    1400 4050
	1    0    0    -1  
$EndComp
Text HLabel 1900 4100 2    50   Output ~ 0
12V_LED
$EndSCHEMATC
